{
  "nicely-presented-markup": {
    "url": "http://blog.npmjs.org/post/109508231330/nicely-presented-markup",
    "published_at": "2015-01-29",
    "title": "nicely presented markup",
    "summary": "The story of marky-markdown, npm's high-performace markdown processor designed to parse and display over 150,000 package READMEs"
  },
  "npm-has-a-new-website": {
    "url": "http://blog.npmjs.org/post/104856015780/npm-has-a-new-website",
    "published_at": "2014-12-10",
    "title": "npm has a new website",
    "summary": "At long last, the npm website is useful, attractive, and designed to enable community participation."
  },
  "twenty-years-with-javascript": {
    "url": "/posts/twenty-years-with-javascript",
    "published_at": "2014-08-18",
    "title": "Twenty Years with JavaScript",
    "summary": "npm is an amazing thing, and I want my mom to know why."
  },
  "popular-npm-packages-on-heroku": {
    "url": "https://github.com/zeke/popular-npm-packages-on-heroku/blob/master/blog-post.md",
    "published_at": "2014-08-08",
    "title": "The Most Popular npm Packages on Heroku",
    "summary": "As a platform upon which thousands of Node apps are deployed every day, Heroku is in a unique position to gather data about popular top-level npm dependencies and share it with the Javascript community."
  },
  "node-habits": {
    "url": "https://blog.heroku.com/archives/2014/3/11/node-habits",
    "published_at": "2014-03-11",
    "title": "10 Habits of a Happy Node Hacker",
    "summary": "This post about best practices for Node.js and npm quickly became the most popular blog post in Heroku history."
  },
  "new-node-buildpack": {
    "url": "https://blog.heroku.com/archives/2013/12/10/new-node-buildpack",
    "published_at": "2014-05-01",
    "title": "Announcing a new and improved Node.js Buildpack",
    "summary": "A post about the completely rewritten Node.js buildpack featuring dependency caching, faster builds, and support for all versions of node."
  },
  "europe-region": {
    "url": "https://blog.heroku.com/archives/2013/4/24/europe-region",
    "published_at": "2013-04-24",
    "title": "Introducing Heroku's Europe Region",
    "summary": "One Heroku, Two Continents."
  },
  "new-addons-site": {
    "url": "https://blog.heroku.com/archives/2012/12/4/new-addons-site",
    "published_at": "2013-04-24",
    "title": "Presenting the New Heroku Add-ons Site",
    "summary": "A story about the redesign of the platform-as-a-service app store for developers."
  }
}
